<?xml version="1.0" encoding="utf-8"?>
<!-- Generator: Adobe Illustrator 16.2.0, SVG Export Plug-In . SVG Version: 6.00 Build 0)  -->
<!DOCTYPE svg PUBLIC "-//W3C//DTD SVG 1.1//EN" "http://www.w3.org/Graphics/SVG/1.1/DTD/svg11.dtd">
<svg version="1.1" id="Layer_1" xmlns="http://www.w3.org/2000/svg" xmlns:xlink="http://www.w3.org/1999/xlink" x="0px" y="0px"
	 width="17px" height="20px" viewBox="0 0 17 20" enable-background="new 0 0 17 20" xml:space="preserve">
<polygon fill="#00A081" points="1,0 0,1 0,19 1,20 16,20 17,19 17,4 13,0 "/>
<polygon fill="#FFFFFF" points="16,4 16,11 1,11 1,1 13,1 "/>
<polygon fill="#FFFFFF" points="2,14 2,16.001 3,17.001 3,13 "/>
<rect x="5" y="13" fill="#FFFFFF" width="1" height="1"/>
<rect x="5" y="16" fill="#FFFFFF" width="1" height="1"/>
<polygon fill="#FFFFFF" points="2,13 6.001,13 4,12 "/>
<polygon fill="#FFFFFF" points="2,17 4,18 6.001,17 "/>
<polygon fill="#00A081" points="12,1 12,4 13,5 13,1 "/>
<rect x="13" y="4" fill="#00A081" width="3.001" height="1"/>
<polygon fill="#FFFFFF" points="7,14 8,15 8,13 "/>
<rect x="10" y="13" fill="#FFFFFF" width="1" height="1"/>
<polygon fill="#FFFFFF" points="7,13 11,13 9,12 "/>
<polygon fill="#FFFFFF" points="10,17 11,16 10,14.999 "/>
<rect x="7" y="16" fill="#FFFFFF" width="1" height="1"/>
<polygon fill="#FFFFFF" points="7,17 9,18 11,17 "/>
<polygon fill="#FFFFFF" points="10,16 8,15 8,14 10,15 "/>
<polygon fill="#FFFFFF" points="12,12 12,15 13,17 13,12 "/>
<polygon fill="#FFFFFF" points="14,12 14,17 15,15 15,12 "/>
<rect x="13" y="16" fill="#FFFFFF" width="1.001" height="2"/>
<rect x="8" y="3" fill="#00A081" width="1" height="7"/>
<polygon fill="#00A081" points="10,8 9,9 8,9 7,8 7,7 10,7 "/>
<polygon fill="#00A081" points="6,6 6,7 7,8 7,6 "/>
<polygon fill="#00A081" points="10,6 10,8 11,7 11,6 "/>
</svg>
